<svg xmlns="http://www.w3.org/2000/svg" viewBox="0 0 182 182">
  <defs>
    <style>
      .cls-1{fill:#999;}
    </style>
  </defs>
  <title>fermer</title>
  <g id="fermer" data-name="fermer">
    <path class="cls-1" d="M158.34,0H159L182,23.05v.61a14.81,14.81,0,0,0-2.12,1.52q-32.08,32-64.12,64a18.17,18.17,0,0,0-1.34,1.64c.51.56.89,1,1.32,1.44q32.54,32.6,65.09,65.16a13.26,13.26,0,0,0,1.17.93V159c-2.78,2.61-5.64,5.14-8.33,7.85-4.9,4.94-9.69,10-15.28,15.75L90.88,113.88,22.92,182c-4.35-4.61-8.51-9.16-12.84-13.54C6.84,165.18,3.37,162.11,0,159v-.61c.54-.45,1.11-.86,1.6-1.35Q33.84,124.74,66,92.47c.54-.55,1-1.18,1.53-1.83-.46-.51-.77-.9-1.12-1.26Q34.18,57.18,1.9,25A11.63,11.63,0,0,0,0,23.66v-.61C5.41,17.76,10.84,12.49,16.22,7.16,18.56,4.84,20.78,2.39,23.05,0h.61a13.32,13.32,0,0,0,.95,1.16Q57,33.72,89.34,66.26c.48.48,1,.89,1.64,1.41.57-.51,1-.88,1.45-1.29Q124.77,34,157.09,1.64A14.47,14.47,0,0,0,158.34,0Z"/>
  </g>
</svg>
